Team
…
## 
## Attaching package: 'dplyr'

## The following objects are masked from 'package:stats':
## 
##     filter, lag

## The following objects are masked from 'package:base':
## 
##     intersect, setdiff, setequal, union

LocationRatings <- choco %>% group_by(Location) %>% summarise(avgRating = mean(Rating))
print(LocationRatings)

## # A tibble: 67 x 2
##    Location  avgRating
##    <fct>         <dbl>
##  1 Amsterdam      3.31
##  2 Argentina      3.31
##  3 Australia      3.36
##  4 Austria        3.26
##  5 Belgium        3.11
##  6 Bolivia        3.25
##  7 Brazil         3.28
##  8 Canada         3.30
##  9 Chile          3.75
## 10 Colombia       3.16
## # ... with 57 more rows
…
Looking at both the graphical and numerical output, the biggest thing that we can take away is that over the course of time, there were fewer low scores handed out. From 2006-2008, the lowest score was 1 each year, then from 2009-2012, the lowest score handed out each year rose to 1.5, then to 1.75 in 2013. After 2013, there were no scores below 2.00 given out. The means each year seem to slowly rise until peaking in 2017, probably partly due to the fact that there were fewer low ratings. There are a few explanations for this. One could be that whoever was rating the chocolates developed a different taste for chocolates after eating so many. What I think happened is that as they rated more and more chocolates, they got more popular within the chocolate industry, which gave them access to better chocolates. That means that they might not have to try low quality chocolates like they might have had to do in the beginning, leading to low ratings for some.

Analysis 2

I chose to look at if there is any connection between the number of ingredients and chocolate ratings. Lets remember that Ingredients column (# = represents the number of ingredients in the chocolate; B = Beans, S = Sugar, S* = Sweetener other than white cane or beet sugar, C = Cocoa Butter, V = Vanilla, L = Lecithin, Sa = Salt)

IngredientsRatings <- choco %>% group_by(Ingredients) %>% summarise(avgRating1 = mean(Rating))

## Warning: Factor `Ingredients` contains implicit NA, consider using
## `forcats::fct_explicit_na`

print(IngredientsRatings)

## # A tibble: 22 x 2
##    Ingredients avgRating1
##    <fct>            <dbl>
##  1 1- B              2.95
##  2 2- B,C            3   
##  3 2- B,S            3.21
##  4 2- B,S*           2.96
##  5 3- B,S*,C         2.94
##  6 3- B,S*,Sa        2.5 
##  7 3- B,S,C          3.27
##  8 3- B,S,L          2.69
##  9 3- B,S,V          3.17
## 10 4- B,S*,C,L       2.88
## # ... with 12 more rows

best22 <- head(IngredientsRatings[order(IngredientsRatings$avgRating1,decreasing = T),], 22)
print(best22) 

## # A tibble: 22 x 2
##    Ingredients  avgRating1
##    <fct>             <dbl>
##  1 3- B,S,C           3.27
##  2 2- B,S             3.21
##  3 4- B,S,C,L         3.20
##  4 3- B,S,V           3.17
##  5 4- B,S,C,Sa        3.15
##  6 4- B,S*,C,Sa       3.11
##  7 5- B,S,C,V,L       3.09
##  8 4- B,S*,V,L        3.08
##  9 2- B,C             3   
## 10 4- B,S*,C,V        3   
## # ... with 12 more rows
…
